C:\Users\ricar\Documents\workspace-sts-3.8.1.RELEASE\gerenciadorbovino\src\main\java\com\gerenciador\bovino\repository\ProgSaidaRepository.java
C:\Users\ricar\Documents\workspace-sts-3.8.1.RELEASE\gerenciadorbovino\src\main\java\com\gerenciador\bovino\resource\LoteResource.java
C:\Users\ricar\Documents\workspace-sts-3.8.1.RELEASE\gerenciadorbovino\src\main\java\com\gerenciador\bovino\representation\SaidaBovinoRepresentation.java
C:\Users\ricar\Documents\workspace-sts-3.8.1.RELEASE\gerenciadorbovino\src\main\java\com\gerenciador\bovino\service\ProgSaidaService.java
C:\Users\ricar\Documents\workspace-sts-3.8.1.RELEASE\gerenciadorbovino\src\main\java\com\gerenciador\bovino\representation\NascimentoRepresentation.java
C:\Users\ricar\Documents\workspace-sts-3.8.1.RELEASE\gerenciadorbovino\src\main\java\com\gerenciador\bovino\repository\StatusBovinoRepository.java
C:\Users\ricar\Documents\workspace-sts-3.8.1.RELEASE\gerenciadorbovino\src\main\java\com\gerenciador\bovino\repository\EntradaBovinoRepository.java
C:\Users\ricar\Documents\workspace-sts-3.8.1.RELEASE\gerenciadorbovino\src\main\java\com\gerenciador\bovino\service\MontaService.java
C:\Users\ricar\Documents\workspace-sts-3.8.1.RELEASE\gerenciadorbovino\src\main\java\com\gerenciador\bovino\repository\DesmamaRepository.java
C:\Users\ricar\Documents\workspace-sts-3.8.1.RELEASE\gerenciadorbovino\src\main\java\com\gerenciador\bovino\exception\EntityNotFoundException.java
C:\Users\ricar\Documents\workspace-sts-3.8.1.RELEASE\gerenciadorbovino\src\main\java\com\gerenciador\bovino\resource\DesmamaResource.java
C:\Users\ricar\Documents\workspace-sts-3.8.1.RELEASE\gerenciadorbovino\src\main\java\com\gerenciador\bovino\domain\Semem.java
C:\Users\ricar\Documents\workspace-sts-3.8.1.RELEASE\gerenciadorbovino\src\main\java\com\gerenciador\bovino\repository\EntradaSememRepository.java
C:\Users\ricar\Documents\workspace-sts-3.8.1.RELEASE\gerenciadorbovino\src\main\java\com\gerenciador\bovino\exception\BovinoNotFoundException.java
C:\Users\ricar\Documents\workspace-sts-3.8.1.RELEASE\gerenciadorbovino\src\main\java\com\gerenciador\bovino\domain\Bovino.java
C:\Users\ricar\Documents\workspace-sts-3.8.1.RELEASE\gerenciadorbovino\src\main\java\com\gerenciador\bovino\repository\SememRepository.java
C:\Users\ricar\Documents\workspace-sts-3.8.1.RELEASE\gerenciadorbovino\src\main\java\com\gerenciador\bovino\representation\DesmamaRepresentation.java
C:\Users\ricar\Documents\workspace-sts-3.8.1.RELEASE\gerenciadorbovino\src\main\java\com\gerenciador\bovino\resource\BovinoResource.java
C:\Users\ricar\Documents\workspace-sts-3.8.1.RELEASE\gerenciadorbovino\src\main\java\com\gerenciador\bovino\repository\IdadeBovinoRepository.java
C:\Users\ricar\Documents\workspace-sts-3.8.1.RELEASE\gerenciadorbovino\src\main\java\com\gerenciador\bovino\resource\ProgSaidaResource.java
C:\Users\ricar\Documents\workspace-sts-3.8.1.RELEASE\gerenciadorbovino\src\main\java\com\gerenciador\bovino\service\EntradaSememService.java
C:\Users\ricar\Documents\workspace-sts-3.8.1.RELEASE\gerenciadorbovino\src\main\java\com\gerenciador\bovino\resource\SememResource.java
C:\Users\ricar\Documents\workspace-sts-3.8.1.RELEASE\gerenciadorbovino\src\main\java\com\gerenciador\bovino\service\NotaFiscalService.java
C:\Users\ricar\Documents\workspace-sts-3.8.1.RELEASE\gerenciadorbovino\src\main\java\com\gerenciador\bovino\representation\RacaRepresentation.java
C:\Users\ricar\Documents\workspace-sts-3.8.1.RELEASE\gerenciadorbovino\src\main\java\com\gerenciador\bovino\representation\StatusBovinoRepresentation.java
C:\Users\ricar\Documents\workspace-sts-3.8.1.RELEASE\gerenciadorbovino\src\main\java\com\gerenciador\bovino\service\NascimentoService.java
C:\Users\ricar\Documents\workspace-sts-3.8.1.RELEASE\gerenciadorbovino\src\main\java\com\gerenciador\bovino\domain\Progsaida.java
C:\Users\ricar\Documents\workspace-sts-3.8.1.RELEASE\gerenciadorbovino\src\main\java\com\gerenciador\bovino\representation\SememRepresentation.java
C:\Users\ricar\Documents\workspace-sts-3.8.1.RELEASE\gerenciadorbovino\src\main\java\com\gerenciador\bovino\service\RacaService.java
C:\Users\ricar\Documents\workspace-sts-3.8.1.RELEASE\gerenciadorbovino\src\main\java\com\gerenciador\bovino\domain\Desmama.java
C:\Users\ricar\Documents\workspace-sts-3.8.1.RELEASE\gerenciadorbovino\src\main\java\com\gerenciador\bovino\handler\ResourceExceptionHandler.java
C:\Users\ricar\Documents\workspace-sts-3.8.1.RELEASE\gerenciadorbovino\src\main\java\com\gerenciador\bovino\representation\NotaFiscalRepresentation.java
C:\Users\ricar\Documents\workspace-sts-3.8.1.RELEASE\gerenciadorbovino\src\main\java\com\gerenciador\bovino\domain\Lote.java
C:\Users\ricar\Documents\workspace-sts-3.8.1.RELEASE\gerenciadorbovino\src\main\java\com\gerenciador\bovino\representation\LoteRepresentation.java
C:\Users\ricar\Documents\workspace-sts-3.8.1.RELEASE\gerenciadorbovino\src\main\java\com\gerenciador\bovino\repository\NotaFiscalRepository.java
C:\Users\ricar\Documents\workspace-sts-3.8.1.RELEASE\gerenciadorbovino\src\main\java\com\gerenciador\bovino\representation\EntradaBovinoRepresentation.java
C:\Users\ricar\Documents\workspace-sts-3.8.1.RELEASE\gerenciadorbovino\src\main\java\com\gerenciador\bovino\domain\Notafiscal.java
C:\Users\ricar\Documents\workspace-sts-3.8.1.RELEASE\gerenciadorbovino\src\main\java\com\gerenciador\bovino\domain\Statusbovino.java
C:\Users\ricar\Documents\workspace-sts-3.8.1.RELEASE\gerenciadorbovino\src\main\java\com\gerenciador\bovino\exception\LoteNotFoundException.java
C:\Users\ricar\Documents\workspace-sts-3.8.1.RELEASE\gerenciadorbovino\src\main\java\com\gerenciador\bovino\resource\EntradabovinoResource.java
C:\Users\ricar\Documents\workspace-sts-3.8.1.RELEASE\gerenciadorbovino\src\main\java\com\gerenciador\bovino\representation\EntradaSememRepresentation.java
C:\Users\ricar\Documents\workspace-sts-3.8.1.RELEASE\gerenciadorbovino\src\main\java\com\gerenciador\bovino\service\PesoService.java
C:\Users\ricar\Documents\workspace-sts-3.8.1.RELEASE\gerenciadorbovino\src\main\java\com\gerenciador\bovino\repository\BovinoRepository.java
C:\Users\ricar\Documents\workspace-sts-3.8.1.RELEASE\gerenciadorbovino\src\main\java\com\gerenciador\bovino\domain\Idadebovino.java
C:\Users\ricar\Documents\workspace-sts-3.8.1.RELEASE\gerenciadorbovino\src\main\java\com\gerenciador\bovino\domain\Monta.java
C:\Users\ricar\Documents\workspace-sts-3.8.1.RELEASE\gerenciadorbovino\src\main\java\com\gerenciador\bovino\handler\ErrorDetails.java
C:\Users\ricar\Documents\workspace-sts-3.8.1.RELEASE\gerenciadorbovino\src\main\java\com\gerenciador\bovino\service\DesmamaService.java
C:\Users\ricar\Documents\workspace-sts-3.8.1.RELEASE\gerenciadorbovino\src\main\java\com\gerenciador\bovino\GerenciadorbovinoApplication.java
C:\Users\ricar\Documents\workspace-sts-3.8.1.RELEASE\gerenciadorbovino\src\main\java\com\gerenciador\bovino\repository\PesoRepository.java
C:\Users\ricar\Documents\workspace-sts-3.8.1.RELEASE\gerenciadorbovino\src\main\java\com\gerenciador\bovino\service\IdadeBovinoService.java
C:\Users\ricar\Documents\workspace-sts-3.8.1.RELEASE\gerenciadorbovino\src\main\java\com\gerenciador\bovino\repository\LoteRepository.java
C:\Users\ricar\Documents\workspace-sts-3.8.1.RELEASE\gerenciadorbovino\src\main\java\com\gerenciador\bovino\exception\EntityAlreadyExistException.java
C:\Users\ricar\Documents\workspace-sts-3.8.1.RELEASE\gerenciadorbovino\src\main\java\com\gerenciador\bovino\exception\BovinoAlreadyExistException.java
C:\Users\ricar\Documents\workspace-sts-3.8.1.RELEASE\gerenciadorbovino\src\main\java\com\gerenciador\bovino\repository\NascimentoRepository.java
C:\Users\ricar\Documents\workspace-sts-3.8.1.RELEASE\gerenciadorbovino\src\main\java\com\gerenciador\bovino\service\EntradaBovinoService.java
C:\Users\ricar\Documents\workspace-sts-3.8.1.RELEASE\gerenciadorbovino\src\main\java\com\gerenciador\bovino\representation\IdadeBovinoRepresentation.java
C:\Users\ricar\Documents\workspace-sts-3.8.1.RELEASE\gerenciadorbovino\src\main\java\com\gerenciador\bovino\service\BovinoService.java
C:\Users\ricar\Documents\workspace-sts-3.8.1.RELEASE\gerenciadorbovino\src\main\java\com\gerenciador\bovino\repository\RacaRepository.java
C:\Users\ricar\Documents\workspace-sts-3.8.1.RELEASE\gerenciadorbovino\src\main\java\com\gerenciador\bovino\resource\IdadeBovinoResource.java
C:\Users\ricar\Documents\workspace-sts-3.8.1.RELEASE\gerenciadorbovino\src\main\java\com\gerenciador\bovino\service\LoteService.java
C:\Users\ricar\Documents\workspace-sts-3.8.1.RELEASE\gerenciadorbovino\src\main\java\com\gerenciador\bovino\service\StatusBovinoService.java
C:\Users\ricar\Documents\workspace-sts-3.8.1.RELEASE\gerenciadorbovino\src\main\java\com\gerenciador\bovino\representation\BovinoRepresentation.java
C:\Users\ricar\Documents\workspace-sts-3.8.1.RELEASE\gerenciadorbovino\src\main\java\com\gerenciador\bovino\resource\MontaResource.java
C:\Users\ricar\Documents\workspace-sts-3.8.1.RELEASE\gerenciadorbovino\src\main\java\com\gerenciador\bovino\domain\Entradasemem.java
C:\Users\ricar\Documents\workspace-sts-3.8.1.RELEASE\gerenciadorbovino\src\main\java\com\gerenciador\bovino\repository\SaidaBovinoRepository.java
C:\Users\ricar\Documents\workspace-sts-3.8.1.RELEASE\gerenciadorbovino\src\main\java\com\gerenciador\bovino\representation\MontaRepresentation.java
C:\Users\ricar\Documents\workspace-sts-3.8.1.RELEASE\gerenciadorbovino\src\main\java\com\gerenciador\bovino\service\SememService.java
C:\Users\ricar\Documents\workspace-sts-3.8.1.RELEASE\gerenciadorbovino\src\main\java\com\gerenciador\bovino\resource\NascimentoResource.java
C:\Users\ricar\Documents\workspace-sts-3.8.1.RELEASE\gerenciadorbovino\src\main\java\com\gerenciador\bovino\resource\SaidaBovinoResource.java
C:\Users\ricar\Documents\workspace-sts-3.8.1.RELEASE\gerenciadorbovino\src\main\java\com\gerenciador\bovino\domain\Raca.java
C:\Users\ricar\Documents\workspace-sts-3.8.1.RELEASE\gerenciadorbovino\src\main\java\com\gerenciador\bovino\resource\StatusBovinoResource.java
C:\Users\ricar\Documents\workspace-sts-3.8.1.RELEASE\gerenciadorbovino\src\main\java\com\gerenciador\bovino\resource\NotaFiscalResource.java
C:\Users\ricar\Documents\workspace-sts-3.8.1.RELEASE\gerenciadorbovino\src\main\java\com\gerenciador\bovino\domain\Nascimento.java
C:\Users\ricar\Documents\workspace-sts-3.8.1.RELEASE\gerenciadorbovino\src\main\java\com\gerenciador\bovino\domain\Peso.java
C:\Users\ricar\Documents\workspace-sts-3.8.1.RELEASE\gerenciadorbovino\src\main\java\com\gerenciador\bovino\representation\ProgSaidaRepresentation.java
C:\Users\ricar\Documents\workspace-sts-3.8.1.RELEASE\gerenciadorbovino\src\main\java\com\gerenciador\bovino\resource\RacaResource.java
C:\Users\ricar\Documents\workspace-sts-3.8.1.RELEASE\gerenciadorbovino\src\main\java\com\gerenciador\bovino\representation\PesoRepresentation.java
C:\Users\ricar\Documents\workspace-sts-3.8.1.RELEASE\gerenciadorbovino\src\main\java\com\gerenciador\bovino\domain\Entradabovino.java
C:\Users\ricar\Documents\workspace-sts-3.8.1.RELEASE\gerenciadorbovino\src\main\java\com\gerenciador\bovino\exception\LoteAlreadyExistException.java
C:\Users\ricar\Documents\workspace-sts-3.8.1.RELEASE\gerenciadorbovino\src\main\java\com\gerenciador\bovino\resource\EntradaSememResource.java
C:\Users\ricar\Documents\workspace-sts-3.8.1.RELEASE\gerenciadorbovino\src\main\java\com\gerenciador\bovino\domain\Saidabovino.java
C:\Users\ricar\Documents\workspace-sts-3.8.1.RELEASE\gerenciadorbovino\src\main\java\com\gerenciador\bovino\repository\MontaRepository.java
C:\Users\ricar\Documents\workspace-sts-3.8.1.RELEASE\gerenciadorbovino\src\main\java\com\gerenciador\bovino\resource\PesoResource.java
C:\Users\ricar\Documents\workspace-sts-3.8.1.RELEASE\gerenciadorbovino\src\main\java\com\gerenciador\bovino\service\SaidaBovinoService.java
